[{
        "UserName": "Ada",
        "Gender": "female",
        "DateOfBirth": "1988-01-08",
        "KnownAs": "Ada",
        "Created": "2020-06-19",
        "LastActive": "2020-06-26",
        "Introduction": "Aliquip officia aliquip proident laborum tempor qui Lorem cillum ipsum laboris occaecat excepteur culpa magna. Elit voluptate aliqua officia cillum enim. Labore esse irure consectetur aute occaecat qui nisi. Occaecat enim occaecat duis in adipisicing in dolore officia cillum. Id sint pariatur fugiat aliquip sint laborum aliqua incididunt ut sint sint deserunt laboris.\r\n",
        "LookingFor": "Sunt nostrud consectetur laborum mollit id amet incididunt ut do deserunt. Magna aliquip culpa adipisicing occaecat adipisicing sit tempor ea sint. Deserunt aute esse aliquip commodo amet consectetur cupidatat dolore fugiat ea velit culpa eu. Fugiat adipisicing fugiat deserunt esse eu Lorem est laborum proident minim Lorem dolor aliquip. Esse tempor Lorem aliquip ex nisi eiusmod voluptate reprehenderit duis ullamco. Dolore et ipsum veniam id minim eu ex aute reprehenderit proident. Cupidatat incididunt id nulla non esse tempor exercitation occaecat.\r\n",
        "Interests": "Ex exercitation nostrud cillum ad tempor adipisicing commodo nostrud anim ipsum reprehenderit.",
        "City": "Websterville",
        "Country": "Solomon Islands",
        "Photos": [{
            "Url": "https://randomuser.me/api/portraits/women/12.jpg",
            "IsMain": true
        }]
    },
    {
        "UserName": "Suzette",
        "Gender": "female",
        "DateOfBirth": "1954-12-26",
        "KnownAs": "Suzette",
        "Created": "2019-08-01",
        "LastActive": "2020-06-22",
        "Introduction": "Do nostrud ullamco velit esse. Id dolore esse consequat culpa culpa in excepteur cupidatat nisi veniam non excepteur dolore. Laborum adipisicing ex ad velit occaecat veniam in. Officia sint laborum cillum qui dolore nulla aliqua exercitation.\r\n",
        "LookingFor": "Tempor id pariatur cupidatat exercitation elit id consequat labore. Ea eu fugiat eu sit magna exercitation quis. Labore officia dolore sunt quis cupidatat deserunt mollit cillum occaecat cillum non cillum voluptate. Nisi occaecat eu est nulla duis Lorem pariatur duis.\r\n",
        "Interests": "Dolor aliqua reprehenderit reprehenderit et adipisicing magna sint cupidatat eiusmod culpa aute irure enim.",
        "City": "Fannett",
        "Country": "Palau",
        "Photos": [{
            "Url": "https://randomuser.me/api/portraits/women/12.jpg",
            "IsMain": true
        }]
    },
    {
        "UserName": "Paige",
        "Gender": "female",
        "DateOfBirth": "1996-02-24",
        "KnownAs": "Paige",
        "Created": "2019-04-21",
        "LastActive": "2020-06-21",
        "Introduction": "Cillum proident tempor nostrud deserunt deserunt nostrud. Voluptate laboris Lorem consectetur velit duis laborum irure ut incididunt elit. Id minim nisi consectetur quis nulla eu occaecat. Occaecat tempor consequat adipisicing est proident. Excepteur minim non ad excepteur nostrud amet. Nulla qui ex Lorem velit. Consequat laboris enim Lorem ea ad exercitation mollit tempor duis.\r\n",
        "LookingFor": "Dolor magna id dolore consectetur culpa nisi elit officia ullamco. Excepteur magna duis irure officia ex sunt mollit mollit dolor. Exercitation elit dolore esse deserunt aliqua culpa veniam cupidatat officia incididunt in veniam labore. Ea commodo dolore id nostrud amet elit anim in laboris proident. Dolor incididunt officia culpa pariatur aute anim reprehenderit ullamco.\r\n",
        "Interests": "Eiusmod non enim eiusmod et adipisicing dolore ut sunt id consequat.",
        "City": "Detroit",
        "Country": "Kiribati",
        "Photos": [{
            "Url": "https://randomuser.me/api/portraits/women/9.jpg",
            "IsMain": true
        }]
    },
    {
        "UserName": "Shana",
        "Gender": "female",
        "DateOfBirth": "1966-05-27",
        "KnownAs": "Shana",
        "Created": "2019-10-28",
        "LastActive": "2020-05-01",
        "Introduction": "Labore sit velit minim fugiat nostrud consectetur ex proident dolor laboris proident tempor. Ad in cillum aliquip sunt quis. Labore irure aliquip velit cillum elit veniam minim id.\r\n",
        "LookingFor": "Deserunt non est est nisi anim nostrud ipsum cupidatat in incididunt eiusmod mollit exercitation. In qui cillum labore anim. Voluptate sit sint do elit aliqua dolor tempor. Duis nostrud minim laborum fugiat nulla magna ullamco eu labore dolore non est. Anim irure nisi veniam ex ipsum id ex sunt. Reprehenderit ex ex ipsum cillum exercitation est nisi magna nulla veniam nostrud officia. Esse voluptate excepteur pariatur sint minim est sint do dolor exercitation velit.\r\n",
        "Interests": "Ex esse aliquip nulla sunt commodo minim.",
        "City": "Kansas",
        "Country": "Cote D'Ivoire (Ivory Coast)",
        "Photos": [{
            "Url": "https://randomuser.me/api/portraits/women/32.jpg",
            "IsMain": true
        }]
    },
    {
        "UserName": "Krystal",
        "Gender": "female",
        "DateOfBirth": "1959-03-04",
        "KnownAs": "Krystal",
        "Created": "2019-07-31",
        "LastActive": "2020-05-10",
        "Introduction": "Sit elit pariatur cillum qui ex occaecat in dolore voluptate exercitation non. Consectetur laboris sit ullamco fugiat excepteur consectetur ea officia amet aliquip et. Do cupidatat quis consequat nisi tempor.\r\n",
        "LookingFor": "Sint sunt dolor labore anim commodo reprehenderit sint minim eiusmod aliquip nostrud. Consequat consequat occaecat enim id cillum id nostrud quis minim voluptate ipsum. Voluptate ex eu et duis officia eiusmod ullamco irure.\r\n",
        "Interests": "Aute laborum fugiat amet nulla sit duis aliqua.",
        "City": "Leland",
        "Country": "St. Helena",
        "Photos": [{
            "Url": "https://randomuser.me/api/portraits/women/30.jpg",
            "IsMain": true
        }]
    },
    {
        "UserName": "Walls",
        "Gender": "male",
        "DateOfBirth": "1955-07-10",
        "KnownAs": "Walls",
        "Created": "2019-05-13",
        "LastActive": "2020-06-22",
        "Introduction": "Pariatur anim sint ex id ipsum ea do laboris eiusmod id laboris. Aute culpa officia mollit exercitation laborum. Magna proident esse sit anim irure dolor in ut deserunt officia mollit. Labore ut amet aliquip fugiat anim fugiat sunt magna. Minim ex nisi ex excepteur non. Sunt consequat ea cupidatat dolor veniam qui. Sunt proident veniam laboris cillum ex enim tempor occaecat officia.\r\n",
        "LookingFor": "Et dolore adipisicing est consectetur proident amet esse amet ex consequat aliqua dolore nisi. Elit culpa in laborum et. Enim duis amet excepteur consequat dolor fugiat magna aliqua eu. Magna pariatur ullamco eu fugiat.\r\n",
        "Interests": "Ea proident excepteur ullamco id veniam magna.",
        "City": "Springdale",
        "Country": "Lebanon",
        "Photos": [{
            "Url": "https://randomuser.me/api/portraits/men/21.jpg",
            "IsMain": true
        }]
    },
    {
        "UserName": "Stephens",
        "Gender": "male",
        "DateOfBirth": "1982-11-26",
        "KnownAs": "Stephens",
        "Created": "2019-04-19",
        "LastActive": "2020-06-01",
        "Introduction": "Laboris pariatur ipsum cillum adipisicing exercitation commodo amet consequat ullamco. Magna tempor id anim dolore consequat cillum. Pariatur dolor sit cillum ad eu cupidatat excepteur veniam consequat consectetur ex officia. Nisi adipisicing incididunt velit duis non dolor enim sit do veniam amet ut culpa id. Dolor veniam commodo aliquip do culpa do velit aliqua magna exercitation.\r\n",
        "LookingFor": "Reprehenderit voluptate quis sunt sunt duis ullamco. Veniam Lorem anim non dolor minim eiusmod id anim pariatur anim est tempor. Exercitation et tempor velit velit eu ipsum elit consequat.\r\n",
        "Interests": "Culpa occaecat consectetur elit consectetur consequat sit.",
        "City": "Helen",
        "Country": "Solomon Islands",
        "Photos": [{
            "Url": "https://randomuser.me/api/portraits/men/3.jpg",
            "IsMain": true
        }]
    },
    {
        "UserName": "Mills",
        "Gender": "male",
        "DateOfBirth": "1971-07-02",
        "KnownAs": "Mills",
        "Created": "2019-04-02",
        "LastActive": "2020-06-08",
        "Introduction": "Do irure dolore nulla et culpa aliqua laboris aliquip qui do. Adipisicing nisi et labore do quis deserunt fugiat in. Irure sit irure ea dolore labore aute anim.\r\n",
        "LookingFor": "Eu esse aute quis pariatur reprehenderit adipisicing reprehenderit laboris consequat minim ipsum cillum laborum. Aliqua aute cupidatat pariatur in ipsum reprehenderit. Reprehenderit ut tempor sunt veniam culpa et aute deserunt sint consectetur. Aliqua ad reprehenderit consequat non sunt magna sint et duis. Nulla cupidatat irure reprehenderit sint in qui nostrud id anim nulla tempor elit tempor. Elit aliqua aliqua veniam incididunt ea veniam enim exercitation nostrud.\r\n",
        "Interests": "Aliquip sit proident et id amet elit deserunt.",
        "City": "Carrsville",
        "Country": "South Africa",
        "Photos": [{
            "Url": "https://randomuser.me/api/portraits/men/90.jpg",
            "IsMain": true
        }]
    },
    {
        "UserName": "Baird",
        "Gender": "male",
        "DateOfBirth": "1963-06-23",
        "KnownAs": "Baird",
        "Created": "2019-01-14",
        "LastActive": "2020-05-29",
        "Introduction": "Aliquip proident nisi aliquip nisi. Aliqua cupidatat ea sint duis commodo. Consectetur aliqua proident non quis exercitation tempor laborum cillum dolor sit ex labore. Esse mollit eiusmod id quis. Anim veniam do reprehenderit dolor nisi. Eu eiusmod nulla veniam incididunt Lorem amet elit aute velit dolore laboris ad. Adipisicing eiusmod elit occaecat nisi.\r\n",
        "LookingFor": "Qui mollit magna commodo mollit. Veniam non nostrud voluptate velit aliquip laboris proident non eiusmod nisi reprehenderit irure. Fugiat cillum Lorem anim cillum voluptate eu anim in. Ullamco nostrud qui velit labore consequat. Cupidatat proident ipsum enim ullamco nisi cillum cillum elit aliqua enim aliqua laborum. Ipsum exercitation commodo sunt sunt officia elit culpa ad Lorem reprehenderit amet eiusmod sint. Pariatur voluptate labore officia quis dolore sint qui id ea id eiusmod irure.\r\n",
        "Interests": "Velit pariatur adipisicing id consequat commodo cillum ex consequat voluptate mollit Lorem.",
        "City": "Fedora",
        "Country": "Kyrgyzstan",
        "Photos": [{
            "Url": "https://randomuser.me/api/portraits/men/86.jpg",
            "IsMain": true
        }]
    },
    {
        "UserName": "Booker",
        "Gender": "male",
        "DateOfBirth": "1975-07-07",
        "KnownAs": "Booker",
        "Created": "2020-04-08",
        "LastActive": "2020-06-13",
        "Introduction": "Nulla Lorem occaecat culpa do mollit reprehenderit velit nisi do laboris ipsum ullamco exercitation excepteur. Labore id occaecat officia labore ad et exercitation. Labore occaecat ut ut dolore fugiat magna. Adipisicing eiusmod eu do et ex adipisicing velit ad id dolor labore.\r\n",
        "LookingFor": "Ad voluptate ullamco commodo exercitation reprehenderit tempor ut esse occaecat exercitation et et excepteur. Cupidatat aliqua irure amet pariatur consequat id enim quis irure. Ipsum est dolor adipisicing et anim magna aliqua Lorem enim aliquip occaecat ex. Pariatur ea et culpa eiusmod enim ad sit qui Lorem.\r\n",
        "Interests": "Nisi aute consequat laboris labore cupidatat.",
        "City": "Richford",
        "Country": "Samoa",
        "Photos": [{
            "Url": "https://randomuser.me/api/portraits/men/32.jpg",
            "IsMain": true
        }]
    }

]